\relax 
\citation{Andersen:2009:FAWN}
\citation{Chase:2001:MES:502034.502045}
\citation{Fan:2007:PPW:1250662.1250665}
\citation{Ferdman:2012:CCS:2150976.2150982}
\citation{Lotfi-Kamran:2012:SP}
\citation{Meisner:2012:DAS}
\citation{facebook:datacenter}
\citation{facebook:hiphop}
\citation{Ferdman:2012:CCS:2150976.2150982}
\citation{JanapaReddi:2010:WSU:1815961.1816002}
\citation{Kgil:2008:PUS:1412587.1412589}
\citation{Lotfi-Kamran:2012:SP}
\citation{Mudge:2010:COE}
\citation{nvidia:kepler:spec}
\citation{intel:xeon:phi}
\citation{nvidia:tegra3}
\citation{AMD:Fusion}
\citation{Li:2011:SIS}
\citation{CohortScheduling}
\@writefile{toc}{\contentsline {section}{\numberline {1}Introduction}{1}}
\newlabel{sec:intro}{{1}{1}}
\@writefile{lof}{\contentsline {figure}{\numberline {1}{\ignorespaces Server Design Space\relax }}{1}}
\providecommand*\caption@xref[2]{\@setref\relax\@undefined{#1}}
\newlabel{fig:designspace}{{1}{1}}
\citation{sartori:hpca12}
\citation{ieee802.3}
\citation{netronome}
\citation{Richardson:2013fk}
\citation{pciesig}
\citation{nvidia:tegra3}
\citation{AMD:Fusion}
\citation{Li:2011:SIS}
\citation{Lim:2013:TSS}
\@writefile{toc}{\contentsline {section}{\numberline {2}Motivation}{2}}
\newlabel{sec:motivation}{{2}{2}}
\@writefile{toc}{\contentsline {subsection}{\numberline {2.1}Accelerator Efficiency}{2}}
\@writefile{toc}{\contentsline {subsection}{\numberline {2.2}Enabling Trends}{2}}
\@writefile{toc}{\contentsline {subsubsection}{\numberline {2.2.1}Increasing Bandwidth}{2}}
\@writefile{toc}{\contentsline {subsubsection}{\numberline {2.2.2}System on Chip}{2}}
\citation{asplos:gpufs}
\citation{Vasudevan:2012:UVI:2391229.2391237}
\citation{Bakkum:2010:ASD}
\citation{Hetherington:2012:CEK:2310660.2310991}
\citation{Wu:2012:KWA:2457472.2457490}
\citation{Fitzpatrick:memcached}
\citation{Chalamalasetti:2013:FMA:2435264.2435306}
\citation{Lim:2013:TSS}
\citation{SPECweb}
\citation{Luk:PLDI:2005}
\citation{facebook:hiphop}
\citation{SEDA}
\citation{CohortScheduling}
\citation{nginx}
\citation{apache2}
\citation{SEDA}
\citation{CohortScheduling}
\citation{nginx}
\@writefile{toc}{\contentsline {subsubsection}{\numberline {2.2.3}Operating System and Backend Services}{3}}
\@writefile{toc}{\contentsline {subsection}{\numberline {2.3}Request Similarity}{3}}
\@writefile{lof}{\contentsline {figure}{\numberline {2}{\ignorespaces Potential Speedup of SPECWeb2009 Banking Workload on Data Parallel Hardware Relative to Ideal Speedup\relax }}{3}}
\newlabel{fig:cluster-speedup}{{2}{3}}
\@writefile{toc}{\contentsline {section}{\numberline {3}{\em  {Rhythm}}\nobreakspace  {}Server Software Architecture}{3}}
\newlabel{sec:rhythm}{{3}{3}}
\@writefile{lof}{\contentsline {figure}{\numberline {3}{\ignorespaces Typical Web Server Request Processing Overview\relax }}{3}}
\newlabel{fig:serverflow}{{3}{3}}
\citation{nginx}
\citation{CohortScheduling}
\citation{Meisner:2012:DAS}
\@writefile{toc}{\contentsline {subsection}{\numberline {3.1}Overview}{4}}
\@writefile{lof}{\contentsline {figure}{\numberline {4}{\ignorespaces {\em  {Rhythm}}\nobreakspace  {}Pipeline (Each stage can have multiple instances)\relax }}{4}}
\newlabel{fig:pipeline}{{4}{4}}
\@writefile{lof}{\contentsline {figure}{\numberline {5}{\ignorespaces {\em  {Rhythm}}\nobreakspace  {}Event-based Server: Each Finite State Machine (FSM) is associated with a cohort of requests.\relax }}{4}}
\newlabel{fig:eventserver}{{5}{4}}
\@writefile{toc}{\contentsline {paragraph}{Cohort Management}{4}}
\@writefile{toc}{\contentsline {subsection}{\numberline {3.2}The {\em  {Rhythm}}\nobreakspace  {}Pipeline}{4}}
\@writefile{toc}{\contentsline {paragraph}{Reader}{4}}
\citation{httpspec}
\citation{asplos:gpufs}
\@writefile{toc}{\contentsline {paragraph}{Parser}{5}}
\@writefile{toc}{\contentsline {paragraph}{Dispatch}{5}}
\@writefile{toc}{\contentsline {paragraph}{Process}{5}}
\@writefile{toc}{\contentsline {paragraph}{Response}{5}}
\@writefile{toc}{\contentsline {section}{\numberline {4}Rhythm Server Implementation}{5}}
\newlabel{sec:implementation}{{4}{5}}
\@writefile{toc}{\contentsline {subsection}{\numberline {4.1}Pipeline Control}{5}}
\@writefile{toc}{\contentsline {paragraph}{Event loop}{5}}
\@writefile{toc}{\contentsline {paragraph}{Callbacks}{5}}
\@writefile{toc}{\contentsline {paragraph}{Cohort context synchronization}{5}}
\@writefile{toc}{\contentsline {subsection}{\numberline {4.2}Pipeline Stages}{5}}
\@writefile{toc}{\contentsline {paragraph}{Reader/Parser}{5}}
\citation{cuda:transpose}
\@writefile{toc}{\contentsline {paragraph}{Process/Backend}{6}}
\@writefile{toc}{\contentsline {paragraph}{Response}{6}}
\@writefile{toc}{\contentsline {subsection}{\numberline {4.3}Data Structures}{6}}
\@writefile{toc}{\contentsline {subsubsection}{\numberline {4.3.1}HTTP Session Array/Cookies}{6}}
\@writefile{toc}{\contentsline {subsubsection}{\numberline {4.3.2}Request and Response Buffer Layout}{6}}
\@writefile{lof}{\contentsline {figure}{\numberline {6}{\ignorespaces Request Buffer Layout (for illustrative purposes only.)\relax }}{6}}
\newlabel{fig:layout}{{6}{6}}
\@writefile{toc}{\contentsline {paragraph}{Buffer Transpose}{6}}
\@writefile{toc}{\contentsline {paragraph}{Whitespace Padding in HTML Content}{6}}
\@writefile{toc}{\contentsline {paragraph}{Whitespace Padding in HTML Headers}{6}}
\citation{SPECweb}
\@writefile{lof}{\contentsline {figure}{\numberline {7}{\ignorespaces Rhythm Web Server Request Processing Overview\relax }}{7}}
\newlabel{fig:reqflow}{{7}{7}}
\@writefile{toc}{\contentsline {subsection}{\numberline {4.4}Error Handling}{7}}
\@writefile{toc}{\contentsline {subsection}{\numberline {4.5}Request Flow in {\em  {Rhythm}}\nobreakspace  {}}{7}}
\@writefile{toc}{\contentsline {subsection}{\numberline {4.6}CUDA Specifics}{7}}
\newlabel{sec:rhythmcuda}{{4.6}{7}}
\@writefile{toc}{\contentsline {section}{\numberline {5}Methodology}{7}}
\newlabel{sec:methodology}{{5}{7}}
\@writefile{toc}{\contentsline {subsection}{\numberline {5.1}Platforms}{7}}
\citation{asplos:gpufs}
\citation{Nygren:2010:ANP:1842733.1842736}
\citation{memorycube}
\citation{Vasudevan:2012:UVI:2391229.2391237}
\citation{Fitzpatrick:memcached}
\@writefile{lot}{\contentsline {table}{\numberline {1}{\ignorespaces Experimental System Platforms\relax }}{8}}
\newlabel{tbl:platforms}{{1}{8}}
\@writefile{toc}{\contentsline {subsection}{\numberline {5.2}Metrics}{8}}
\@writefile{toc}{\contentsline {subsection}{\numberline {5.3}Modeling Future Systems}{8}}
\@writefile{toc}{\contentsline {subsubsection}{\numberline {5.3.1}Input Generation}{8}}
\@writefile{toc}{\contentsline {subsubsection}{\numberline {5.3.2}Emulation}{8}}
\citation{Dean:2013:TS:2408776.2408794}
\@writefile{lot}{\contentsline {table}{\numberline {2}{\ignorespaces SPECWeb Banking Workload\relax }}{9}}
\newlabel{tbl:specwebdistr}{{2}{9}}
\@writefile{toc}{\contentsline {section}{\numberline {6}Evaluation}{9}}
\newlabel{sec:eval}{{6}{9}}
\@writefile{toc}{\contentsline {subsection}{\numberline {6.1}Overall Results}{9}}
\@writefile{toc}{\contentsline {subsubsection}{\numberline {6.1.1}Titan A: Emulated Remote Backend}{9}}
\@writefile{lof}{\contentsline {figure}{\numberline {8}{\ignorespaces Throughput-Efficiency for Wall Power (a) and Dynamic Power (b). Throughput (y-axis) is normalized to Core i7 8 workers and efficiency (x-axis) to ARM A9 2 workers. The shaded region represents the desired operating range.\relax }}{10}}
\@writefile{lof}{\contentsline {subfigure}{\numberline{(a)}{\ignorespaces {Wall Power}}}{10}}
\@writefile{lof}{\contentsline {subfigure}{\numberline{(b)}{\ignorespaces {Dynamic Power}}}{10}}
\newlabel{fig:finaleff}{{8}{10}}
\@writefile{lot}{\contentsline {table}{\numberline {3}{\ignorespaces SPECWeb Banking Experimental Results. *Titan C Latency is for transposed response\relax }}{10}}
\newlabel{tbl:finalresults}{{3}{10}}
\@writefile{lof}{\contentsline {figure}{\numberline {9}{\ignorespaces PCIe 3.0 Limitations in Titan A for various request types\relax }}{10}}
\newlabel{fig:titanAPCI}{{9}{10}}
\@writefile{toc}{\contentsline {subsubsection}{\numberline {6.1.2}Titan B: Integrated NIC and Device Backend}{10}}
\citation{Li:2011:SIS}
\citation{httpcompression}
\citation{ieee802.3}
\@writefile{lof}{\contentsline {figure}{\numberline {10}{\ignorespaces Throughput-Efficiency for different request types on Titan B (dynamic power). {\em  {Rhythm}}\nobreakspace  {}buffer sizes that are close to required sizes perform well (shaded area represents the desired operating range).\relax }}{11}}
\newlabel{fig:titanBTPWcomp}{{10}{11}}
\@writefile{toc}{\contentsline {subsubsection}{\numberline {6.1.3}Titan C: Increasing Device Utilization}{11}}
\@writefile{toc}{\contentsline {subsection}{\numberline {6.2}Scaling Many Core Processors}{11}}
\@writefile{toc}{\contentsline {subsection}{\numberline {6.3}System Resource Requirements}{11}}
\@writefile{toc}{\contentsline {paragraph}{Network Bandwidth}{11}}
\@writefile{toc}{\contentsline {paragraph}{Memory Capacity}{11}}
\citation{BuckCUDA}
\citation{AMD:CTM:2007}
\citation{Che:IISWC:2009}
\citation{Dietz:2009:MIG}
\citation{Bakkum:2010:ASD}
\citation{Govindaraju:2004:FCD}
\citation{Wu:2012:KWA:2457472.2457490}
\citation{Hetherington:2012:CEK:2310660.2310991}
\citation{Han:2010:PGS:1851182.1851207}
\citation{CohortScheduling}
\citation{Lang:CIDR:2009}
\citation{Meisner:2012:DAS}
\citation{SEDA}
\citation{Tseng:HPCA:2011}
\citation{Long:MICRO:2010}
\citation{Gonzalez:ISLPED:2008}
\citation{Biswas:ISCA:2009}
\citation{Tarjan:SC:2009}
\citation{Meng:ISCA:2010}
\citation{Fung:MICRO:2007}
\citation{Fung:HPCA:2011}
\citation{Chalamalasetti:2013:FMA:2435264.2435306}
\citation{Ferdman:2012:CCS:2150976.2150982}
\citation{JanapaReddi:2010:WSU:1815961.1816002}
\citation{Kgil:2008:PUS:1412587.1412589}
\citation{Li:2011:SIS}
\citation{Lim:2013:TSS}
\citation{Lotfi-Kamran:2012:SP}
\citation{Mudge:2010:COE}
\bibstyle{plain}
\bibdata{references}
\bibcite{ieee802.3}{1}
\bibcite{memorycube}{2}
\bibcite{pciesig}{3}
\bibcite{Andersen:2009:FAWN}{4}
\bibcite{Bakkum:2010:ASD}{5}
\@writefile{toc}{\contentsline {subsection}{\numberline {6.4}Miscellaneous}{12}}
\@writefile{toc}{\contentsline {paragraph}{Cohort Size sensitivity}{12}}
\@writefile{toc}{\contentsline {paragraph}{Parser divergence}{12}}
\@writefile{toc}{\contentsline {paragraph}{HyperQ}{12}}
\@writefile{toc}{\contentsline {section}{\numberline {7}Related Work}{12}}
\newlabel{sec:related}{{7}{12}}
\@writefile{toc}{\contentsline {section}{\numberline {8}Conclusion}{12}}
\newlabel{sec:conclusion}{{8}{12}}
\bibcite{Biswas:ISCA:2009}{6}
\bibcite{AMD:Fusion}{7}
\bibcite{BuckCUDA}{8}
\bibcite{Chalamalasetti:2013:FMA:2435264.2435306}{9}
\bibcite{Chase:2001:MES:502034.502045}{10}
\bibcite{Che:IISWC:2009}{11}
\bibcite{Dean:2013:TS:2408776.2408794}{12}
\bibcite{Dietz:2009:MIG}{13}
\bibcite{facebook:hiphop}{14}
\bibcite{Fan:2007:PPW:1250662.1250665}{15}
\bibcite{Ferdman:2012:CCS:2150976.2150982}{16}
\bibcite{apache2}{17}
\bibcite{Fitzpatrick:memcached}{18}
\bibcite{httpspec}{19}
\bibcite{Fung:MICRO:2007}{20}
\bibcite{Fung:HPCA:2011}{21}
\bibcite{Gonzalez:ISLPED:2008}{22}
\bibcite{Govindaraju:2004:FCD}{23}
\bibcite{facebook:datacenter}{24}
\bibcite{Han:2010:PGS:1851182.1851207}{25}
\bibcite{AMD:CTM:2007}{26}
\bibcite{Hetherington:2012:CEK:2310660.2310991}{27}
\bibcite{netronome}{28}
\bibcite{intel:xeon:phi}{29}
\bibcite{JanapaReddi:2010:WSU:1815961.1816002}{30}
\bibcite{Kgil:2008:PUS:1412587.1412589}{31}
\bibcite{Lang:CIDR:2009}{32}
\bibcite{CohortScheduling}{33}
\bibcite{Li:2011:SIS}{34}
\bibcite{Lim:2013:TSS}{35}
\bibcite{httpcompression}{36}
\bibcite{Long:MICRO:2010}{37}
\bibcite{Lotfi-Kamran:2012:SP}{38}
\bibcite{Luk:PLDI:2005}{39}
\bibcite{Meisner:2012:DAS}{40}
\bibcite{Meng:ISCA:2010}{41}
\bibcite{Mudge:2010:COE}{42}
\bibcite{nvidia:tegra3}{43}
\bibcite{nvidia:kepler:spec}{44}
\bibcite{Nygren:2010:ANP:1842733.1842736}{45}
\bibcite{Richardson:2013fk}{46}
\bibcite{cuda:transpose}{47}
\bibcite{sartori:hpca12}{48}
\bibcite{asplos:gpufs}{49}
\bibcite{SPECweb}{50}
\bibcite{nginx}{51}
\bibcite{Tarjan:SC:2009}{52}
\bibcite{Tseng:HPCA:2011}{53}
\bibcite{Vasudevan:2012:UVI:2391229.2391237}{54}
\bibcite{SEDA}{55}
\bibcite{Wu:2012:KWA:2457472.2457490}{56}
